

All Chiller 

Valves and Motors 

Must Be in Auto









































Tank 2











VacPump

































Tank 1

































Tank 3








ED2
ED1

{if(TAnk2FILLvlv.boHAutoMan,"A","H")}
VacPump

Cooling Pump
Tank Fill

Pump
Chiller Pump
Chiller
{if(TAnk1FILLvlv.boHAutoMan,"A","H")}
{if(TAnk1DRNvlv.boHAutoMan,"A","H")}
{if(TAnk2DRNvlv.boHAutoMan,"A","H")}
{if(VACpmpvlv.boHAutoMan,"A","H")}
{if(Tankpmp.boHAutoMan,"A","H")}
{if(Chillerpmp.boHAutoMan,"A","H")}
{if(boGhvacWTRpmpAutoMan,"A","H")}
A
A
{Tank2.inTemp}
{tank1.inTemp}






Temp: {tank3.inTemp}





Chiller Pump
{if(tankdrnpmp.boHAutoMan,"A","H")}
A




Tank Drain

Pump
























Chiller Man.

Valve













HH Temp

###
Eductor Tank Setpoints
H Temp

###
L Temp

###
Auto
{if(boGhChillerAutoBIT,"ON", "OFF")}
Auto 



Tank Fill

Man. Valve
Vac Pump

Man. Valve
-Check Chiller SP






VacPump

Cooling Valve
Max.: {tank3.inMaxTemp}
Min.: {tank3.inMinTemp}


