
Fan 

Emergency Stop
Fans

Off CountDown (s)

Runtime SP (s)

###

####



Right Fans
Auto
Manual
{if(TopFan[1].boDOrelay," Fans ON", "  Fans OFF")}
Runtime SP (min)

###
Off Delay SP (min)

###
Off CountDown (min)

####



Left Fans
Auto
Manual
{if(BotFan[1].boDOrelay," Fans ON", "  Fans OFF")}
1



Heaters
Auto
Manual
Heaters {if(boGDIhtrAUX,"ON", "OFF")}


