
Main Read
Main

###
Launcher ALM
2

###
Launcher STS
3

###
Launcher CMD
4

###
lcr Sts
11

NR
Location
Drvr No.
Status
CIP STS
7

###
Driver Status
Network
Launcher Loc
5

###
CIP CMD
6

###
Main Write
Main

###

{strPowerUPTime[0]}
{strPowerUPTime[1]}
{strPowerUPTime[2]}
PLC Bootup Time

{strHMIbootDATE[0]}
{strHMIbootDATE[1]}
{strHMIbootDATE[2]}
HMI Bootup Time
{if( $boALLdrvrWRTtrig,"Main WRT Trig Active","Activate ALL WRT Trig")}



Location
Drvr No.
Status
Fans CMD
14

###
Valve STS
18

###
Valve CMD
19

###
Motor CMD
21

###
Driver Status
Network
13

###
Fans STS
15

###
Motor STS
20

###
STS ALWYS
22

###
CMD ALWYS
25

###
