





1

2

3

4

5

6

7

8

9

10

11

12

13

14

15

16

17

18

20









19





















Logged in as: {UserName}
Recipe Loaded: ##########
Highest Temperature: ##
Lowest Temperature: ##
Start Time: ##########
Elapsed: ##########
Total Trays Ran: ##########


-5
-4
-3
-2
-1
SP
1
2
3
4
5
Pressure



Rear Chiller: ### °C
Front Chiller: ### °C
